# Created by Metasequoia

v -0.000000 0.100000 -0.000033
v -0.015643 0.098769 -0.000033
v -0.014878 0.098769 0.004801
v -0.012656 0.098769 0.009162
v -0.009195 0.098769 0.012623
v -0.004834 0.098769 0.014845
v -0.000000 0.098769 0.015611
v 0.004834 0.098769 0.014845
v 0.009195 0.098769 0.012623
v 0.012656 0.098769 0.009162
v 0.014878 0.098769 0.004801
v 0.015643 0.098769 -0.000033
v -0.030902 0.095106 -0.000033
v -0.029389 0.095106 0.009516
v -0.025000 0.095106 0.018131
v -0.018164 0.095106 0.024967
v -0.009549 0.095106 0.029356
v -0.000000 0.095106 0.030869
v 0.009549 0.095106 0.029356
v 0.018164 0.095106 0.024967
v 0.025000 0.095106 0.018131
v 0.029389 0.095106 0.009516
v 0.030902 0.095106 -0.000033
v -0.045399 0.089101 -0.000033
v -0.043177 0.089101 0.013996
v -0.036729 0.089101 0.026652
v -0.026685 0.089101 0.036696
v -0.014029 0.089101 0.043144
v -0.000000 0.089101 0.045366
v 0.014029 0.089101 0.043144
v 0.026685 0.089101 0.036696
v 0.036729 0.089101 0.026652
v 0.043177 0.089101 0.013996
v 0.045399 0.089101 -0.000033
v -0.058779 0.080902 -0.000033
v -0.055902 0.080902 0.018131
v -0.047553 0.080902 0.034516
v -0.034549 0.080902 0.047520
v -0.018164 0.080902 0.055869
v -0.000000 0.080902 0.058746
v 0.018164 0.080902 0.055869
v 0.034549 0.080902 0.047520
v 0.047553 0.080902 0.034516
v 0.055902 0.080902 0.018131
v 0.058779 0.080902 -0.000033
v -0.070711 0.070711 -0.000033
v -0.067250 0.070711 0.021818
v -0.057206 0.070711 0.041530
v -0.041563 0.070711 0.057173
v -0.021851 0.070711 0.067217
v -0.000000 0.070711 0.070678
v 0.021851 0.070711 0.067217
v 0.041563 0.070711 0.057173
v 0.057206 0.070711 0.041530
v 0.067250 0.070711 0.021818
v 0.070711 0.070711 -0.000033
v -0.080902 0.058779 -0.000033
v -0.076942 0.058779 0.024967
v -0.065451 0.058779 0.047520
v -0.047553 0.058779 0.065418
v -0.025000 0.058779 0.076909
v -0.000000 0.058779 0.080869
v 0.025000 0.058779 0.076909
v 0.047553 0.058779 0.065418
v 0.065451 0.058779 0.047520
v 0.076942 0.058779 0.024967
v 0.080902 0.058779 -0.000033
v -0.089101 0.045399 -0.000033
v -0.084740 0.045399 0.027501
v -0.072084 0.045399 0.052339
v -0.052372 0.045399 0.072051
v -0.027534 0.045399 0.084707
v -0.000000 0.045399 0.089068
v 0.027534 0.045399 0.084707
v 0.052372 0.045399 0.072051
v 0.072084 0.045399 0.052339
v 0.084740 0.045399 0.027501
v 0.089101 0.045399 -0.000033
v -0.095106 0.030902 -0.000033
v -0.090451 0.030902 0.029356
v -0.076942 0.030902 0.055869
v -0.055902 0.030902 0.076909
v -0.029389 0.030902 0.090418
v -0.000000 0.030902 0.095073
v 0.029389 0.030902 0.090418
v 0.055902 0.030902 0.076909
v 0.076942 0.030902 0.055869
v 0.090451 0.030902 0.029356
v 0.095106 0.030902 -0.000033
v -0.098769 0.015643 -0.000033
v -0.093935 0.015643 0.030488
v -0.079906 0.015643 0.058022
v -0.058055 0.015643 0.079873
v -0.030521 0.015643 0.093902
v -0.000000 0.015643 0.098736
v 0.030521 0.015643 0.093902
v 0.058055 0.015643 0.079873
v 0.079906 0.015643 0.058022
v 0.093935 0.015643 0.030488
v 0.098769 0.015643 -0.000033
v -0.100000 0.000000 -0.000033
v -0.095106 0.000000 0.030869
v -0.080902 0.000000 0.058746
v -0.058779 0.000000 0.080869
v -0.030902 0.000000 0.095073
v -0.000000 0.000000 0.099967
v 0.030902 0.000000 0.095073
v 0.058779 0.000000 0.080869
v 0.080902 0.000000 0.058746
v 0.095106 0.000000 0.030869
v 0.100000 0.000000 -0.000033
v -0.098769 -0.015643 -0.000033
v -0.093935 -0.015643 0.030488
v -0.079906 -0.015643 0.058022
v -0.058055 -0.015643 0.079873
v -0.030521 -0.015643 0.093902
v -0.000000 -0.015643 0.098736
v 0.030521 -0.015643 0.093902
v 0.058055 -0.015643 0.079873
v 0.079906 -0.015643 0.058022
v 0.093935 -0.015643 0.030488
v 0.098769 -0.015643 -0.000033
v -0.095106 -0.030902 -0.000033
v -0.090451 -0.030902 0.029356
v -0.076942 -0.030902 0.055869
v -0.055902 -0.030902 0.076909
v -0.029389 -0.030902 0.090418
v -0.000000 -0.030902 0.095073
v 0.029389 -0.030902 0.090418
v 0.055902 -0.030902 0.076909
v 0.076942 -0.030902 0.055869
v 0.090451 -0.030902 0.029356
v 0.095106 -0.030902 -0.000033
v -0.089101 -0.045399 -0.000033
v -0.084740 -0.045399 0.027501
v -0.072084 -0.045399 0.052339
v -0.052372 -0.045399 0.072051
v -0.027534 -0.045399 0.084707
v -0.000000 -0.045399 0.089068
v 0.027534 -0.045399 0.084707
v 0.052372 -0.045399 0.072051
v 0.072084 -0.045399 0.052339
v 0.084740 -0.045399 0.027501
v 0.089101 -0.045399 -0.000033
v -0.080902 -0.058779 -0.000033
v -0.076942 -0.058779 0.024967
v -0.065451 -0.058779 0.047520
v -0.047553 -0.058779 0.065418
v -0.025000 -0.058779 0.076909
v -0.000000 -0.058779 0.080869
v 0.025000 -0.058779 0.076909
v 0.047553 -0.058779 0.065418
v 0.065451 -0.058779 0.047520
v 0.076942 -0.058779 0.024967
v 0.080902 -0.058779 -0.000033
v -0.070711 -0.070711 -0.000033
v -0.067250 -0.070711 0.021818
v -0.057206 -0.070711 0.041530
v -0.041563 -0.070711 0.057173
v -0.021851 -0.070711 0.067217
v -0.000000 -0.070711 0.070678
v 0.021851 -0.070711 0.067217
v 0.041563 -0.070711 0.057173
v 0.057206 -0.070711 0.041530
v 0.067250 -0.070711 0.021818
v 0.070711 -0.070711 -0.000033
v -0.058779 -0.080902 -0.000033
v -0.055902 -0.080902 0.018131
v -0.047553 -0.080902 0.034516
v -0.034549 -0.080902 0.047520
v -0.018164 -0.080902 0.055869
v -0.000000 -0.080902 0.058746
v 0.018164 -0.080902 0.055869
v 0.034549 -0.080902 0.047520
v 0.047553 -0.080902 0.034516
v 0.055902 -0.080902 0.018131
v 0.058779 -0.080902 -0.000033
v -0.043177 -0.089101 0.013996
v -0.036729 -0.089101 0.026652
v -0.026685 -0.089101 0.036696
v -0.014029 -0.089101 0.043144
v -0.000000 -0.089101 0.045366
v 0.014029 -0.089101 0.043144
v 0.026685 -0.089101 0.036696
v 0.036729 -0.089101 0.026652
v 0.043177 -0.089101 0.013996
v -0.029389 -0.095106 0.009516
v -0.025000 -0.095106 0.018131
v -0.018164 -0.095106 0.024967
v -0.009549 -0.095106 0.029356
v -0.000000 -0.095106 0.030869
v 0.009549 -0.095106 0.029356
v 0.018164 -0.095106 0.024967
v 0.025000 -0.095106 0.018131
v 0.029389 -0.095106 0.009516
v -0.012656 -0.098769 0.009162
v -0.009195 -0.098769 0.012623
v -0.004834 -0.098769 0.014845
v -0.000000 -0.098769 0.015611
v 0.004834 -0.098769 0.014845
v 0.009195 -0.098769 0.012623
v 0.012656 -0.098769 0.009162
v 0.055902 -0.080902 0.018131
v 0.058779 -0.080902 -0.000033
v 0.043177 -0.089101 0.013996
v 0.045399 -0.089101 -0.000033
v 0.025000 -0.095106 0.018131
v 0.029389 -0.095106 0.009516
v 0.030902 -0.095106 -0.000033
v 0.012656 -0.098769 0.009162
v 0.014878 -0.098769 0.004801
v -0.058779 -0.080902 -0.000033
v -0.055902 -0.080902 0.018131
v -0.045399 -0.089101 -0.000033
v -0.043177 -0.089101 0.013996
v -0.030902 -0.095106 -0.000033
v -0.029389 -0.095106 0.009516
v -0.025000 -0.095106 0.018131
v 0.029389 -0.095106 0.009516
v 0.030902 -0.095106 -0.000033
v -0.015643 -0.098769 -0.000033
v -0.014878 -0.098769 0.004801
v -0.012656 -0.098769 0.009162
v -0.009195 -0.098769 0.012623
v -0.004834 -0.098769 0.014845
v -0.000000 -0.098769 0.015611
v 0.004834 -0.098769 0.014845
v 0.009195 -0.098769 0.012623
v 0.012656 -0.098769 0.009162
v 0.014878 -0.098769 0.004801
v 0.015643 -0.098769 -0.000033
v -0.000000 -0.100000 -0.000033
# 232 vertices

vt 0.02500 1.00000
vt 0.05000 0.95000
vt 0.00000 0.95000
vt 0.07500 1.00000
vt 0.10000 0.95000
vt 0.12500 1.00000
vt 0.15000 0.95000
vt 0.17500 1.00000
vt 0.20000 0.95000
vt 0.22500 1.00000
vt 0.25000 0.95000
vt 0.27500 1.00000
vt 0.30000 0.95000
vt 0.32500 1.00000
vt 0.35000 0.95000
vt 0.37500 1.00000
vt 0.40000 0.95000
vt 0.42500 1.00000
vt 0.45000 0.95000
vt 0.47500 1.00000
vt 0.50000 0.95000
vt 0.20000 0.05000
vt 0.25000 0.05000
vt 0.22500 0.00000
vt 0.30000 0.05000
vt 0.27500 0.00000
vt 0.35000 0.05000
vt 0.32500 0.00000
vt 0.40000 0.05000
vt 0.37500 0.00000
vt 0.45000 0.05000
vt 0.42500 0.00000
vt 0.50000 0.05000
vt 0.47500 0.00000
vt 0.05000 0.90000
vt 0.00000 0.90000
vt 0.10000 0.90000
vt 0.15000 0.90000
vt 0.20000 0.90000
vt 0.25000 0.90000
vt 0.30000 0.90000
vt 0.35000 0.90000
vt 0.40000 0.90000
vt 0.45000 0.90000
vt 0.50000 0.90000
vt 0.05000 0.85000
vt 0.00000 0.85000
vt 0.10000 0.85000
vt 0.15000 0.85000
vt 0.20000 0.85000
vt 0.25000 0.85000
vt 0.30000 0.85000
vt 0.35000 0.85000
vt 0.40000 0.85000
vt 0.45000 0.85000
vt 0.50000 0.85000
vt 0.05000 0.80000
vt 0.00000 0.80000
vt 0.10000 0.80000
vt 0.15000 0.80000
vt 0.20000 0.80000
vt 0.25000 0.80000
vt 0.30000 0.80000
vt 0.35000 0.80000
vt 0.40000 0.80000
vt 0.45000 0.80000
vt 0.50000 0.80000
vt 0.05000 0.75000
vt 0.00000 0.75000
vt 0.10000 0.75000
vt 0.15000 0.75000
vt 0.20000 0.75000
vt 0.25000 0.75000
vt 0.30000 0.75000
vt 0.35000 0.75000
vt 0.40000 0.75000
vt 0.45000 0.75000
vt 0.50000 0.75000
vt 0.05000 0.70000
vt 0.00000 0.70000
vt 0.10000 0.70000
vt 0.15000 0.70000
vt 0.20000 0.70000
vt 0.25000 0.70000
vt 0.30000 0.70000
vt 0.35000 0.70000
vt 0.40000 0.70000
vt 0.45000 0.70000
vt 0.50000 0.70000
vt 0.05000 0.65000
vt 0.00000 0.65000
vt 0.10000 0.65000
vt 0.15000 0.65000
vt 0.20000 0.65000
vt 0.25000 0.65000
vt 0.30000 0.65000
vt 0.35000 0.65000
vt 0.40000 0.65000
vt 0.45000 0.65000
vt 0.50000 0.65000
vt 0.05000 0.60000
vt 0.00000 0.60000
vt 0.10000 0.60000
vt 0.15000 0.60000
vt 0.20000 0.60000
vt 0.25000 0.60000
vt 0.30000 0.60000
vt 0.35000 0.60000
vt 0.40000 0.60000
vt 0.45000 0.60000
vt 0.50000 0.60000
vt 0.05000 0.55000
vt 0.00000 0.55000
vt 0.10000 0.55000
vt 0.15000 0.55000
vt 0.20000 0.55000
vt 0.25000 0.55000
vt 0.30000 0.55000
vt 0.35000 0.55000
vt 0.40000 0.55000
vt 0.45000 0.55000
vt 0.50000 0.55000
vt 0.05000 0.50000
vt 0.00000 0.50000
vt 0.10000 0.50000
vt 0.15000 0.50000
vt 0.20000 0.50000
vt 0.25000 0.50000
vt 0.30000 0.50000
vt 0.35000 0.50000
vt 0.40000 0.50000
vt 0.45000 0.50000
vt 0.50000 0.50000
vt 0.05000 0.45000
vt 0.00000 0.45000
vt 0.10000 0.45000
vt 0.15000 0.45000
vt 0.20000 0.45000
vt 0.25000 0.45000
vt 0.30000 0.45000
vt 0.35000 0.45000
vt 0.40000 0.45000
vt 0.45000 0.45000
vt 0.50000 0.45000
vt 0.05000 0.40000
vt 0.00000 0.40000
vt 0.10000 0.40000
vt 0.15000 0.40000
vt 0.20000 0.40000
vt 0.25000 0.40000
vt 0.30000 0.40000
vt 0.35000 0.40000
vt 0.40000 0.40000
vt 0.45000 0.40000
vt 0.50000 0.40000
vt 0.05000 0.35000
vt 0.00000 0.35000
vt 0.10000 0.35000
vt 0.15000 0.35000
vt 0.20000 0.35000
vt 0.25000 0.35000
vt 0.30000 0.35000
vt 0.35000 0.35000
vt 0.40000 0.35000
vt 0.45000 0.35000
vt 0.50000 0.35000
vt 0.05000 0.30000
vt 0.00000 0.30000
vt 0.10000 0.30000
vt 0.15000 0.30000
vt 0.20000 0.30000
vt 0.25000 0.30000
vt 0.30000 0.30000
vt 0.35000 0.30000
vt 0.40000 0.30000
vt 0.45000 0.30000
vt 0.50000 0.30000
vt 0.05000 0.25000
vt 0.00000 0.25000
vt 0.10000 0.25000
vt 0.15000 0.25000
vt 0.20000 0.25000
vt 0.25000 0.25000
vt 0.30000 0.25000
vt 0.35000 0.25000
vt 0.40000 0.25000
vt 0.45000 0.25000
vt 0.50000 0.25000
vt 0.05000 0.20000
vt 0.00000 0.20000
vt 0.10000 0.20000
vt 0.15000 0.20000
vt 0.20000 0.20000
vt 0.25000 0.20000
vt 0.30000 0.20000
vt 0.35000 0.20000
vt 0.40000 0.20000
vt 0.45000 0.20000
vt 0.50000 0.20000
vt 0.10000 0.15000
vt 0.05000 0.15000
vt 0.15000 0.15000
vt 0.20000 0.15000
vt 0.25000 0.15000
vt 0.30000 0.15000
vt 0.35000 0.15000
vt 0.40000 0.15000
vt 0.45000 0.15000
vt 0.10000 0.10000
vt 0.05000 0.10000
vt 0.15000 0.10000
vt 0.20000 0.10000
vt 0.25000 0.10000
vt 0.30000 0.10000
vt 0.35000 0.10000
vt 0.40000 0.10000
vt 0.45000 0.10000
vt 0.15000 0.05000
vt 0.10000 0.05000
vt 0.50000 0.15000
vt 0.50000 0.10000
vt 0.00000 0.15000
vt 0.00000 0.10000
vt 0.05000 0.05000
vt 0.00000 0.05000
vt 0.02500 0.00000
vt 0.12500 0.00000
# 227 texture vertices

f 2/3 3/2 1/1
f 3/2 4/5 1/4
f 4/5 5/7 1/6
f 5/7 6/9 1/8
f 6/9 7/11 1/10
f 7/11 8/13 1/12
f 8/13 9/15 1/14
f 9/15 10/17 1/16
f 10/17 11/19 1/18
f 11/19 12/21 1/20
f 232/24 226/23 225/22
f 232/26 227/25 226/23
f 232/28 228/27 227/25
f 232/30 229/29 228/27
f 232/32 230/31 229/29
f 232/34 231/33 230/31
f 13/36 14/35 3/2
f 2/3 13/36 3/2
f 15/37 4/5 3/2
f 14/35 15/37 3/2
f 15/37 16/38 5/7
f 4/5 15/37 5/7
f 16/38 17/39 6/9
f 5/7 16/38 6/9
f 18/40 7/11 6/9
f 17/39 18/40 6/9
f 18/40 19/41 8/13
f 7/11 18/40 8/13
f 20/42 9/15 8/13
f 19/41 20/42 8/13
f 21/43 10/17 9/15
f 20/42 21/43 9/15
f 21/43 22/44 11/19
f 10/17 21/43 11/19
f 23/45 12/21 11/19
f 22/44 23/45 11/19
f 25/46 14/35 13/36
f 24/47 25/46 13/36
f 26/48 15/37 14/35
f 25/46 26/48 14/35
f 26/48 27/49 16/38
f 15/37 26/48 16/38
f 28/50 17/39 16/38
f 27/49 28/50 16/38
f 28/50 29/51 18/40
f 17/39 28/50 18/40
f 30/52 19/41 18/40
f 29/51 30/52 18/40
f 30/52 31/53 20/42
f 19/41 30/52 20/42
f 32/54 21/43 20/42
f 31/53 32/54 20/42
f 32/54 33/55 22/44
f 21/43 32/54 22/44
f 33/55 34/56 23/45
f 22/44 33/55 23/45
f 35/58 36/57 25/46
f 24/47 35/58 25/46
f 36/57 37/59 26/48
f 25/46 36/57 26/48
f 38/60 27/49 26/48
f 37/59 38/60 26/48
f 39/61 28/50 27/49
f 38/60 39/61 27/49
f 39/61 40/62 29/51
f 28/50 39/61 29/51
f 41/63 30/52 29/51
f 40/62 41/63 29/51
f 41/63 42/64 31/53
f 30/52 41/63 31/53
f 42/64 43/65 32/54
f 31/53 42/64 32/54
f 44/66 33/55 32/54
f 43/65 44/66 32/54
f 45/67 34/56 33/55
f 44/66 45/67 33/55
f 46/69 47/68 36/57
f 35/58 46/69 36/57
f 47/68 48/70 37/59
f 36/57 47/68 37/59
f 49/71 38/60 37/59
f 48/70 49/71 37/59
f 50/72 39/61 38/60
f 49/71 50/72 38/60
f 51/73 40/62 39/61
f 50/72 51/73 39/61
f 52/74 41/63 40/62
f 51/73 52/74 40/62
f 52/74 53/75 42/64
f 41/63 52/74 42/64
f 53/75 54/76 43/65
f 42/64 53/75 43/65
f 55/77 44/66 43/65
f 54/76 55/77 43/65
f 56/78 45/67 44/66
f 55/77 56/78 44/66
f 58/79 47/68 46/69
f 57/80 58/79 46/69
f 59/81 48/70 47/68
f 58/79 59/81 47/68
f 60/82 49/71 48/70
f 59/81 60/82 48/70
f 61/83 50/72 49/71
f 60/82 61/83 49/71
f 62/84 51/73 50/72
f 61/83 62/84 50/72
f 62/84 63/85 52/74
f 51/73 62/84 52/74
f 63/85 64/86 53/75
f 52/74 63/85 53/75
f 64/86 65/87 54/76
f 53/75 64/86 54/76
f 65/87 66/88 55/77
f 54/76 65/87 55/77
f 66/88 67/89 56/78
f 55/77 66/88 56/78
f 69/90 58/79 57/80
f 68/91 69/90 57/80
f 70/92 59/81 58/79
f 69/90 70/92 58/79
f 70/92 71/93 60/82
f 59/81 70/92 60/82
f 71/93 72/94 61/83
f 60/82 71/93 61/83
f 72/94 73/95 62/84
f 61/83 72/94 62/84
f 74/96 63/85 62/84
f 73/95 74/96 62/84
f 75/97 64/86 63/85
f 74/96 75/97 63/85
f 76/98 65/87 64/86
f 75/97 76/98 64/86
f 76/98 77/99 66/88
f 65/87 76/98 66/88
f 77/99 78/100 67/89
f 66/88 77/99 67/89
f 79/102 80/101 69/90
f 68/91 79/102 69/90
f 80/101 81/103 70/92
f 69/90 80/101 70/92
f 81/103 82/104 71/93
f 70/92 81/103 71/93
f 83/105 72/94 71/93
f 82/104 83/105 71/93
f 83/105 84/106 73/95
f 72/94 83/105 73/95
f 85/107 74/96 73/95
f 84/106 85/107 73/95
f 85/107 86/108 75/97
f 74/96 85/107 75/97
f 87/109 76/98 75/97
f 86/108 87/109 75/97
f 88/110 77/99 76/98
f 87/109 88/110 76/98
f 89/111 78/100 77/99
f 88/110 89/111 77/99
f 91/112 80/101 79/102
f 90/113 91/112 79/102
f 92/114 81/103 80/101
f 91/112 92/114 80/101
f 93/115 82/104 81/103
f 92/114 93/115 81/103
f 94/116 83/105 82/104
f 93/115 94/116 82/104
f 95/117 84/106 83/105
f 94/116 95/117 83/105
f 95/117 96/118 85/107
f 84/106 95/117 85/107
f 96/118 97/119 86/108
f 85/107 96/118 86/108
f 97/119 98/120 87/109
f 86/108 97/119 87/109
f 98/120 99/121 88/110
f 87/109 98/120 88/110
f 99/121 100/122 89/111
f 88/110 99/121 89/111
f 101/124 102/123 91/112
f 90/113 101/124 91/112
f 102/123 103/125 92/114
f 91/112 102/123 92/114
f 103/125 104/126 93/115
f 92/114 103/125 93/115
f 104/126 105/127 94/116
f 93/115 104/126 94/116
f 105/127 106/128 95/117
f 94/116 105/127 95/117
f 107/129 96/118 95/117
f 106/128 107/129 95/117
f 108/130 97/119 96/118
f 107/129 108/130 96/118
f 109/131 98/120 97/119
f 108/130 109/131 97/119
f 110/132 99/121 98/120
f 109/131 110/132 98/120
f 111/133 100/122 99/121
f 110/132 111/133 99/121
f 113/134 102/123 101/124
f 112/135 113/134 101/124
f 114/136 103/125 102/123
f 113/134 114/136 102/123
f 115/137 104/126 103/125
f 114/136 115/137 103/125
f 116/138 105/127 104/126
f 115/137 116/138 104/126
f 117/139 106/128 105/127
f 116/138 117/139 105/127
f 117/139 118/140 107/129
f 106/128 117/139 107/129
f 118/140 119/141 108/130
f 107/129 118/140 108/130
f 119/141 120/142 109/131
f 108/130 119/141 109/131
f 120/142 121/143 110/132
f 109/131 120/142 110/132
f 121/143 122/144 111/133
f 110/132 121/143 111/133
f 123/146 124/145 113/134
f 112/135 123/146 113/134
f 124/145 125/147 114/136
f 113/134 124/145 114/136
f 125/147 126/148 115/137
f 114/136 125/147 115/137
f 126/148 127/149 116/138
f 115/137 126/148 116/138
f 127/149 128/150 117/139
f 116/138 127/149 117/139
f 129/151 118/140 117/139
f 128/150 129/151 117/139
f 130/152 119/141 118/140
f 129/151 130/152 118/140
f 131/153 120/142 119/141
f 130/152 131/153 119/141
f 132/154 121/143 120/142
f 131/153 132/154 120/142
f 133/155 122/144 121/143
f 132/154 133/155 121/143
f 135/156 124/145 123/146
f 134/157 135/156 123/146
f 136/158 125/147 124/145
f 135/156 136/158 124/145
f 137/159 126/148 125/147
f 136/158 137/159 125/147
f 137/159 138/160 127/149
f 126/148 137/159 127/149
f 139/161 128/150 127/149
f 138/160 139/161 127/149
f 139/161 140/162 129/151
f 128/150 139/161 129/151
f 141/163 130/152 129/151
f 140/162 141/163 129/151
f 141/163 142/164 131/153
f 130/152 141/163 131/153
f 142/164 143/165 132/154
f 131/153 142/164 132/154
f 143/165 144/166 133/155
f 132/154 143/165 133/155
f 145/168 146/167 135/156
f 134/157 145/168 135/156
f 146/167 147/169 136/158
f 135/156 146/167 136/158
f 148/170 137/159 136/158
f 147/169 148/170 136/158
f 149/171 138/160 137/159
f 148/170 149/171 137/159
f 150/172 139/161 138/160
f 149/171 150/172 138/160
f 150/172 151/173 140/162
f 139/161 150/172 140/162
f 151/173 152/174 141/163
f 140/162 151/173 141/163
f 152/174 153/175 142/164
f 141/163 152/174 142/164
f 154/176 143/165 142/164
f 153/175 154/176 142/164
f 155/177 144/166 143/165
f 154/176 155/177 143/165
f 156/179 157/178 146/167
f 145/168 156/179 146/167
f 157/178 158/180 147/169
f 146/167 157/178 147/169
f 158/180 159/181 148/170
f 147/169 158/180 148/170
f 159/181 160/182 149/171
f 148/170 159/181 149/171
f 160/182 161/183 150/172
f 149/171 160/182 150/172
f 162/184 151/173 150/172
f 161/183 162/184 150/172
f 163/185 152/174 151/173
f 162/184 163/185 151/173
f 164/186 153/175 152/174
f 163/185 164/186 152/174
f 165/187 154/176 153/175
f 164/186 165/187 153/175
f 166/188 155/177 154/176
f 165/187 166/188 154/176
f 168/189 157/178 156/179
f 167/190 168/189 156/179
f 169/191 158/180 157/178
f 168/189 169/191 157/178
f 169/191 170/192 159/181
f 158/180 169/191 159/181
f 170/192 171/193 160/182
f 159/181 170/192 160/182
f 171/193 172/194 161/183
f 160/182 171/193 161/183
f 173/195 162/184 161/183
f 172/194 173/195 161/183
f 174/196 163/185 162/184
f 173/195 174/196 162/184
f 175/197 164/186 163/185
f 174/196 175/197 163/185
f 175/197 176/198 165/187
f 164/186 175/197 165/187
f 176/198 177/199 166/188
f 165/187 176/198 166/188
f 179/200 169/191 168/189
f 178/201 179/200 168/189
f 179/200 180/202 170/192
f 169/191 179/200 170/192
f 180/202 181/203 171/193
f 170/192 180/202 171/193
f 182/204 172/194 171/193
f 181/203 182/204 171/193
f 182/204 183/205 173/195
f 172/194 182/204 173/195
f 184/206 174/196 173/195
f 183/205 184/206 173/195
f 185/207 175/197 174/196
f 184/206 185/207 174/196
f 185/207 186/208 176/198
f 175/197 185/207 176/198
f 187/210 188/209 179/200
f 178/201 187/210 179/200
f 189/211 180/202 179/200
f 188/209 189/211 179/200
f 189/211 190/212 181/203
f 180/202 189/211 181/203
f 191/213 182/204 181/203
f 190/212 191/213 181/203
f 191/213 192/214 183/205
f 182/204 191/213 183/205
f 193/215 184/206 183/205
f 192/214 193/215 183/205
f 193/215 194/216 185/207
f 184/206 193/215 185/207
f 195/217 186/208 185/207
f 194/216 195/217 185/207
f 197/218 189/211 188/209
f 196/219 197/218 188/209
f 198/22 190/212 189/211
f 197/218 198/22 189/211
f 198/22 199/23 191/213
f 190/212 198/22 191/213
f 200/25 192/214 191/213
f 199/23 200/25 191/213
f 200/25 201/27 193/215
f 192/214 200/25 193/215
f 201/27 202/29 194/216
f 193/215 201/27 194/216
f 205/208 206/220 204/199
f 203/198 205/208 204/199
f 209/221 206/220 205/208
f 208/217 209/221 205/208
f 211/31 208/217 207/216
f 210/29 211/31 207/216
f 215/201 213/189 212/190
f 214/222 215/201 212/190
f 216/223 217/210 215/201
f 214/222 216/223 215/201
f 222/224 217/210 216/223
f 221/225 222/224 216/223
f 222/224 223/219 218/209
f 217/210 222/224 218/209
f 230/31 231/33 220/221
f 219/217 230/31 220/221
f 232/226 223/219 222/224
f 221/225 232/226 222/224
f 224/218 223/219 232/227
f 225/22 224/218 232/227
# 380 elements

