# Created by Metasequoia

v 0.500000 0.005000 -0.500000
v 0.500000 0.005000 0.500000
v -0.500000 0.005000 0.500000
v -0.500000 0.005000 -0.500000
# 4 vertices

vt -0.50000 0.50000
vt 0.50000 -0.50000
vt -0.50000 -0.50000
vt 0.50000 0.50000
# 4 texture vertices

g obj
f 4/3 3/2 1/1
f 1/1 3/2 2/4
# 2 elements

