# Created by Metasequoia

mtllib VORDME.mtl

v 4.450000 1.000000 0.000000
v 4.451704 1.000000 -0.012941
v 4.456698 1.000000 -0.025000
v 4.464645 1.000000 -0.035355
v 4.475000 1.000000 -0.043301
v 4.487059 1.000000 -0.048296
v 4.500000 1.000000 -0.050000
v 4.512941 1.000000 -0.048296
v 4.525000 1.000000 -0.043301
v 4.535355 1.000000 -0.035355
v 4.543301 1.000000 -0.025000
v 4.548296 1.000000 -0.012941
v 4.550000 1.000000 0.000000
v 4.548296 1.000000 0.012941
v 4.543301 1.000000 0.025000
v 4.535355 1.000000 0.035355
v 4.525000 1.000000 0.043301
v 4.512941 1.000000 0.048296
v 4.500000 1.000000 0.050000
v 4.487059 1.000000 0.048296
v 4.475000 1.000000 0.043301
v 4.464645 1.000000 0.035355
v 4.456698 1.000000 0.025000
v 4.451704 1.000000 0.012941
v 4.450000 0.000000 0.000000
v 4.451704 0.000000 0.012941
v 4.456698 0.000000 0.025000
v 4.464645 0.000000 0.035355
v 4.475000 0.000000 0.043301
v 4.487059 0.000000 0.048296
v 4.500000 0.000000 0.050000
v 4.512941 0.000000 0.048296
v 4.525000 0.000000 0.043301
v 4.535355 0.000000 0.035355
v 4.543301 0.000000 0.025000
v 4.548296 0.000000 0.012941
v 4.550000 0.000000 0.000000
v 4.548296 0.000000 -0.012941
v 4.543301 0.000000 -0.025000
v 4.535355 0.000000 -0.035355
v 4.525000 0.000000 -0.043301
v 4.512941 0.000000 -0.048296
v 4.500000 0.000000 -0.050000
v 4.487059 0.000000 -0.048296
v 4.475000 0.000000 -0.043301
v 4.464645 0.000000 -0.035355
v 4.456698 0.000000 -0.025000
v 4.451704 0.000000 -0.012941
v 5.000000 1.300000 0.000000
v 4.500000 1.700000 0.000000
v 4.993844 1.300000 -0.078217
v 4.975528 1.300000 -0.154508
v 4.945503 1.300000 -0.226995
v 4.904508 1.300000 -0.293893
v 4.853553 1.300000 -0.353553
v 4.793892 1.300000 -0.404509
v 4.726995 1.300000 -0.445503
v 4.654508 1.300000 -0.475528
v 4.578217 1.300000 -0.493844
v 4.500000 1.300000 -0.500000
v 4.421783 1.300000 -0.493844
v 4.345491 1.300000 -0.475528
v 4.273005 1.300000 -0.445503
v 4.206108 1.300000 -0.404509
v 4.146446 1.300000 -0.353553
v 4.095491 1.300000 -0.293893
v 4.054497 1.300000 -0.226995
v 4.024472 1.300000 -0.154508
v 4.006155 1.300000 -0.078217
v 4.000000 1.300000 0.000000
v 4.006155 1.300000 0.078217
v 4.024472 1.300000 0.154508
v 4.054497 1.300000 0.226995
v 4.095491 1.300000 0.293893
v 4.146446 1.300000 0.353553
v 4.206108 1.300000 0.404509
v 4.273005 1.300000 0.445503
v 4.345491 1.300000 0.475528
v 4.421783 1.300000 0.493844
v 4.500000 1.300000 0.500000
v 4.578217 1.300000 0.493844
v 4.654508 1.300000 0.475528
v 4.726995 1.300000 0.445503
v 4.793892 1.300000 0.404509
v 4.853553 1.300000 0.353553
v 4.904508 1.300000 0.293893
v 4.945503 1.300000 0.226995
v 4.975528 1.300000 0.154508
v 4.993844 1.300000 0.078217
v 5.000000 1.000000 0.000000
v 4.993844 1.000000 -0.078217
v 4.993844 1.000000 0.078217
v 4.975528 1.000000 0.154508
v 4.945503 1.000000 0.226995
v 4.904508 1.000000 0.293893
v 4.853553 1.000000 0.353553
v 4.793892 1.000000 0.404509
v 4.726995 1.000000 0.445503
v 4.654508 1.000000 0.475528
v 4.578217 1.000000 0.493844
v 4.500000 1.000000 0.500000
v 4.421783 1.000000 0.493844
v 4.345491 1.000000 0.475528
v 4.273005 1.000000 0.445503
v 4.206108 1.000000 0.404509
v 4.146446 1.000000 0.353553
v 4.095491 1.000000 0.293893
v 4.054497 1.000000 0.226995
v 4.024472 1.000000 0.154508
v 4.006155 1.000000 0.078217
v 4.000000 1.000000 0.000000
v 4.006155 1.000000 -0.078217
v 4.024472 1.000000 -0.154508
v 4.054497 1.000000 -0.226995
v 4.095491 1.000000 -0.293893
v 4.146446 1.000000 -0.353553
v 4.206108 1.000000 -0.404509
v 4.273005 1.000000 -0.445503
v 4.345491 1.000000 -0.475528
v 4.421783 1.000000 -0.493844
v 4.500000 1.000000 -0.500000
v 4.578217 1.000000 -0.493844
v 4.654508 1.000000 -0.475528
v 4.726995 1.000000 -0.445503
v 4.793892 1.000000 -0.404509
v 4.853553 1.000000 -0.353553
v 4.904508 1.000000 -0.293893
v 4.945503 1.000000 -0.226995
v 4.975528 1.000000 -0.154508
v -0.100000 4.600000 0.000000
v -0.096593 2.520000 -0.025882
v -0.096593 4.600000 -0.025882
v -0.100000 2.520000 0.000000
v -0.096593 4.600000 0.025882
v -0.096593 2.520000 0.025882
v -0.086603 4.600000 0.050000
v -0.086603 2.520000 0.050000
v -0.070711 4.600000 0.070711
v -0.070711 2.520000 0.070711
v -0.050000 4.600000 0.086603
v -0.050000 2.520000 0.086603
v -0.025882 4.600000 0.096593
v -0.025882 2.520000 0.096593
v 0.000000 4.600000 0.100000
v 0.000000 2.520000 0.100000
v 0.025882 4.600000 0.096593
v 0.025882 2.520000 0.096593
v 0.050000 4.600000 0.086603
v 0.050000 2.520000 0.086603
v 0.070711 4.600000 0.070711
v 0.070711 2.520000 0.070711
v 0.086603 4.600000 0.050000
v 0.086603 2.520000 0.050000
v 0.096593 4.600000 0.025882
v 0.096593 2.520000 0.025882
v 0.100000 4.600000 0.000000
v 0.100000 2.520000 0.000000
v 0.096593 4.600000 -0.025882
v 0.096593 2.520000 -0.025882
v 0.086603 4.600000 -0.050000
v 0.086603 2.520000 -0.050000
v 0.070711 4.600000 -0.070711
v 0.070711 2.520000 -0.070711
v 0.050000 4.600000 -0.086603
v 0.050000 2.520000 -0.086603
v 0.025882 4.600000 -0.096593
v 0.025882 2.520000 -0.096593
v 0.000000 4.600000 -0.100000
v 0.000000 2.520000 -0.100000
v -0.025882 4.600000 -0.096593
v -0.025882 2.520000 -0.096593
v -0.050000 4.600000 -0.086603
v -0.050000 2.520000 -0.086603
v -0.070711 4.600000 -0.070711
v -0.070711 2.520000 -0.070711
v -0.086603 4.600000 -0.050000
v -0.086603 2.520000 -0.050000
v -0.731196 2.000000 -0.166891
v -0.750000 2.000000 0.000000
v -0.731196 2.000000 0.166891
v -0.675727 2.000000 -0.325413
v -0.586374 2.000000 -0.467617
v -0.467617 2.000000 -0.586374
v -0.325413 2.000000 -0.675727
v -0.166891 2.000000 -0.731196
v 0.000000 2.000000 -0.750000
v 0.166891 2.000000 -0.731196
v 0.325413 2.000000 -0.675727
v 0.467617 2.000000 -0.586374
v 0.586374 2.000000 -0.467617
v 0.675727 2.000000 -0.325413
v 0.731196 2.000000 -0.166891
v 0.750000 2.000000 0.000000
v 0.731196 2.000000 0.166891
v 0.675727 2.000000 0.325413
v 0.586374 2.000000 0.467617
v 0.467617 2.000000 0.586374
v 0.325413 2.000000 0.675727
v 0.166891 2.000000 0.731196
v 0.000000 2.000000 0.750000
v -0.166891 2.000000 0.731196
v -0.325413 2.000000 0.675727
v -0.467617 2.000000 0.586374
v -0.586374 2.000000 0.467617
v -0.675727 2.000000 0.325413
v -0.750000 0.000000 0.000000
v -0.731196 0.000000 0.166891
v -0.731196 0.000000 -0.166891
v -0.675727 0.000000 0.325413
v -0.586374 0.000000 0.467617
v -0.467617 0.000000 0.586374
v -0.325413 0.000000 0.675727
v -0.166891 0.000000 0.731196
v 0.000000 0.000000 0.750000
v 0.166891 0.000000 0.731196
v 0.325413 0.000000 0.675727
v 0.467617 0.000000 0.586374
v 0.586374 0.000000 0.467617
v 0.675727 0.000000 0.325413
v 0.731196 0.000000 0.166891
v 0.750000 0.000000 0.000000
v 0.731196 0.000000 -0.166891
v 0.675727 0.000000 -0.325413
v 0.586374 0.000000 -0.467617
v 0.467617 0.000000 -0.586374
v 0.325413 0.000000 -0.675727
v 0.166891 0.000000 -0.731196
v 0.000000 0.000000 -0.750000
v -0.166891 0.000000 -0.731196
v -0.325413 0.000000 -0.675727
v -0.467617 0.000000 -0.586374
v -0.586374 0.000000 -0.467617
v -0.675727 0.000000 -0.325413
# 233 vertices

vt -10.00000 1.57080
vt -0.00000 1.43990
vt -10.00000 1.43990
vt -0.00000 1.57080
vt -10.00000 -1.43990
vt -0.00000 -1.57080
vt -10.00000 -1.57080
vt -0.00000 -1.43990
vt -10.00000 -1.30900
vt -0.00000 -1.30900
vt -10.00000 -1.17810
vt -0.00000 -1.17810
vt -10.00000 -1.04720
vt -0.00000 -1.04720
vt -10.00000 -0.91630
vt -0.00000 -0.91630
vt -10.00000 -0.78540
vt -0.00000 -0.78540
vt -10.00000 -0.65450
vt -0.00000 -0.65450
vt -10.00000 -0.52360
vt -0.00000 -0.52360
vt -10.00000 -0.39270
vt -0.00000 -0.39270
vt -10.00000 -0.26180
vt -0.00000 -0.26180
vt -10.00000 -0.13090
vt -0.00000 -0.13090
vt -10.00000 0.00000
vt -0.00000 0.00000
vt -10.00000 0.13090
vt -0.00000 0.13090
vt -10.00000 0.26180
vt -0.00000 0.26180
vt -10.00000 0.39270
vt -0.00000 0.39270
vt -10.00000 0.52360
vt -0.00000 0.52360
vt -10.00000 0.65450
vt -0.00000 0.65450
vt -10.00000 0.78540
vt -0.00000 0.78540
vt -10.00000 0.91630
vt -0.00000 0.91630
vt -10.00000 1.04720
vt -0.00000 1.04720
vt -10.00000 1.17810
vt -0.00000 1.17810
vt -10.00000 1.30900
vt -0.00000 1.30900
vt -0.50000 0.00000
vt 0.48296 -0.12941
vt -0.48296 -0.12941
vt 0.50000 0.00000
vt -0.48296 0.12941
vt 0.48296 0.12941
vt -0.43301 0.25000
vt 0.43301 0.25000
vt -0.35355 0.35355
vt 0.35355 0.35355
vt -0.25000 0.43301
vt 0.25000 0.43301
vt -0.12941 0.48296
vt 0.12941 0.48296
vt 0.00000 0.50000
vt 0.43301 -0.25000
vt -0.43301 -0.25000
vt 0.35355 -0.35355
vt -0.35355 -0.35355
vt 0.25000 -0.43301
vt -0.25000 -0.43301
vt 0.12941 -0.48296
vt -0.12941 -0.48296
vt 0.00000 -0.50000
vt -0.00000 -7.85398
vt -6.40312 -7.46128
vt -0.00000 -7.46128
vt -0.00000 -7.06858
vt -6.40312 -6.67588
vt -0.00000 -6.67588
vt -0.00000 -6.28319
vt -6.40312 -5.89049
vt -0.00000 -5.89049
vt -0.00000 -5.49779
vt -6.40312 -5.10509
vt -0.00000 -5.10509
vt -0.00000 -4.71239
vt -6.40312 -4.31969
vt -0.00000 -4.31969
vt -0.00000 -3.92699
vt -6.40312 -3.53429
vt -0.00000 -3.53429
vt -0.00000 -3.14159
vt -6.40312 -2.74889
vt -0.00000 -2.74889
vt -6.40312 -2.35619
vt -0.00000 -2.35619
vt -0.00000 -1.96350
vt -6.40312 -1.57080
vt -6.40312 -0.78540
vt -6.40312 0.00000
vt -6.40312 0.78540
vt -6.40312 1.57080
vt -0.00000 1.96350
vt -6.40312 2.35619
vt -0.00000 2.35619
vt -6.40312 2.74889
vt -0.00000 2.74889
vt -0.00000 3.14159
vt -6.40312 3.53429
vt -0.00000 3.53429
vt -0.00000 3.92699
vt -6.40312 4.31969
vt -0.00000 4.31969
vt -0.00000 4.71239
vt -6.40312 5.10509
vt -0.00000 5.10509
vt -0.00000 5.49779
vt -6.40312 5.89049
vt -0.00000 5.89049
vt -0.00000 6.28319
vt -6.40312 6.67588
vt -0.00000 6.67588
vt -0.00000 7.06858
vt -6.40312 7.46128
vt -0.00000 7.46128
vt -6.40312 7.85398
vt -0.00000 7.85398
vt -6.40312 7.06858
vt -6.40312 6.28319
vt -6.40312 5.49779
vt -6.40312 4.71239
vt -6.40312 3.92699
vt -6.40312 3.14159
vt -6.40312 1.96350
vt -6.40312 1.17810
vt -6.40312 0.39270
vt -6.40312 -0.39270
vt -6.40312 -1.17810
vt -6.40312 -1.96350
vt -6.40312 -3.14159
vt -6.40312 -3.92699
vt -6.40312 -4.71239
vt -6.40312 -5.49779
vt -6.40312 -6.28319
vt -6.40312 -7.06858
vt -0.00000 -15.70796
vt -3.00000 -14.92257
vt -0.00000 -14.92257
vt -3.00000 -15.70796
vt -0.00000 14.92257
vt -3.00000 15.70796
vt -0.00000 15.70796
vt -3.00000 14.92257
vt -0.00000 14.13717
vt -3.00000 14.13717
vt -0.00000 13.35177
vt -3.00000 13.35177
vt -0.00000 12.56637
vt -3.00000 12.56637
vt -0.00000 11.78097
vt -3.00000 11.78097
vt -0.00000 10.99557
vt -3.00000 10.99557
vt -0.00000 10.21018
vt -3.00000 10.21018
vt -0.00000 9.42478
vt -3.00000 9.42478
vt -0.00000 8.63938
vt -3.00000 8.63938
vt -3.00000 7.85398
vt -3.00000 7.06858
vt -3.00000 6.28319
vt -3.00000 5.49779
vt -3.00000 4.71239
vt -3.00000 3.92699
vt -3.00000 3.14159
vt -3.00000 2.35619
vt -3.00000 1.57080
vt -3.00000 0.78540
vt -3.00000 0.00000
vt -3.00000 -0.78540
vt -3.00000 -1.57080
vt -3.00000 -2.35619
vt -3.00000 -3.14159
vt -3.00000 -3.92699
vt -3.00000 -4.71239
vt -3.00000 -5.49779
vt -3.00000 -6.28319
vt -3.00000 -7.06858
vt -3.00000 -7.85398
vt -0.00000 -8.63938
vt -3.00000 -8.63938
vt -0.00000 -9.42478
vt -3.00000 -9.42478
vt -0.00000 -10.21018
vt -3.00000 -10.21018
vt -0.00000 -10.99557
vt -3.00000 -10.99557
vt -0.00000 -11.78097
vt -3.00000 -11.78097
vt -0.00000 -12.56637
vt -3.00000 -12.56637
vt -0.00000 -13.35177
vt -3.00000 -13.35177
vt -0.00000 -14.13717
vt -3.00000 -14.13717
vt 5.00000 0.00000
vt -4.93844 0.78217
vt 4.93844 0.78217
vt -5.00000 0.00000
vt 4.93844 -0.78217
vt -4.93844 -0.78217
vt 4.75528 -1.54508
vt -4.75528 -1.54508
vt 4.45503 -2.26995
vt -4.45503 -2.26995
vt 4.04508 -2.93893
vt -4.04508 -2.93893
vt 3.53553 -3.53553
vt -3.53553 -3.53553
vt 2.93893 -4.04508
vt -2.93893 -4.04508
vt 2.26995 -4.45503
vt -2.26995 -4.45503
vt 1.54508 -4.75528
vt -1.54508 -4.75528
vt 0.78217 -4.93844
vt -0.78217 -4.93844
vt -0.00000 -5.00000
vt -4.75528 1.54508
vt 4.75528 1.54508
vt -4.45503 2.26995
vt 4.45503 2.26995
vt -4.04508 2.93893
vt 4.04508 2.93893
vt -3.53553 3.53553
vt 3.53553 3.53553
vt -2.93893 4.04508
vt 2.93893 4.04508
vt -2.26995 4.45503
vt 2.26995 4.45503
vt -1.54508 4.75528
vt 1.54508 4.75528
vt -0.78217 4.93844
vt 0.78217 4.93844
vt -0.00000 5.00000
vt -46.00000 3.14159
vt -25.20000 2.87979
vt -46.00000 2.87979
vt -25.20000 3.14159
vt -46.00000 -2.87979
vt -25.20000 -3.14159
vt -46.00000 -3.14159
vt -25.20000 -2.87979
vt -46.00000 -2.61799
vt -25.20000 -2.61799
vt -46.00000 -2.35619
vt -25.20000 -2.35619
vt -46.00000 -2.09439
vt -25.20000 -2.09439
vt -46.00000 -1.83260
vt -25.20000 -1.83260
vt -46.00000 -1.57080
vt -25.20000 -1.57080
vt -46.00000 -1.30900
vt -25.20000 -1.30900
vt -46.00000 -1.04720
vt -25.20000 -1.04720
vt -46.00000 -0.78540
vt -25.20000 -0.78540
vt -46.00000 -0.52360
vt -25.20000 -0.52360
vt -46.00000 -0.26180
vt -25.20000 -0.26180
vt -46.00000 0.00000
vt -25.20000 0.00000
vt -46.00000 0.26180
vt -25.20000 0.26180
vt -46.00000 0.52360
vt -25.20000 0.52360
vt -46.00000 0.78540
vt -25.20000 0.78540
vt -46.00000 1.04720
vt -25.20000 1.04720
vt -46.00000 1.30900
vt -25.20000 1.30900
vt -46.00000 1.57080
vt -25.20000 1.57080
vt -46.00000 1.83260
vt -25.20000 1.83260
vt -46.00000 2.09439
vt -25.20000 2.09439
vt -46.00000 2.35619
vt -25.20000 2.35619
vt -46.00000 2.61799
vt -25.20000 2.61799
vt 1.00000 0.00000
vt -0.96593 0.25882
vt 0.96593 0.25882
vt -1.00000 0.00000
vt 0.96593 -0.25882
vt -0.96593 -0.25882
vt 0.86602 -0.50000
vt -0.86602 -0.50000
vt 0.70711 -0.70711
vt -0.70711 -0.70711
vt 0.50000 -0.86602
vt -0.50000 -0.86602
vt 0.25882 -0.96593
vt -0.25882 -0.96593
vt -0.00000 -1.00000
vt -0.86602 0.50000
vt 0.86602 0.50000
vt -0.70711 0.70711
vt 0.70711 0.70711
vt -0.50000 0.86602
vt 0.50000 0.86602
vt -0.25882 0.96593
vt 0.25882 0.96593
vt -0.00000 1.00000
vt -8.32406 13.35177
vt -0.00000 12.39807
vt -8.32406 12.23912
vt -0.00000 -12.39807
vt -8.32406 -13.35177
vt -0.00000 11.44437
vt -8.32406 11.12647
vt -0.00000 10.49067
vt -8.32406 10.01383
vt -0.00000 9.53698
vt -8.32406 8.90118
vt -0.00000 8.58328
vt -8.32406 7.78853
vt -0.00000 7.62958
vt -8.32406 6.67588
vt -0.00000 5.72219
vt -8.32406 5.56324
vt 0.00000 4.76849
vt -8.32406 4.45059
vt -0.00000 3.81479
vt -8.32406 3.33794
vt -0.00000 2.86109
vt -8.32406 2.22530
vt -0.00000 1.90740
vt -8.32406 1.11265
vt -0.00000 0.95370
vt -8.32406 0.00000
vt -0.00000 -0.95370
vt -8.32406 -1.11265
vt -0.00000 -1.90740
vt -8.32406 -2.22530
vt -0.00000 -2.86109
vt -8.32406 -3.33794
vt -0.00000 -3.81479
vt -8.32406 -4.45059
vt 0.00000 -4.76849
vt -8.32406 -5.56324
vt -0.00000 -5.72219
vt -8.32406 -6.67588
vt -0.00000 -7.62958
vt -8.32406 -7.78853
vt -0.00000 -8.58328
vt -8.32406 -8.90118
vt -0.00000 -9.53698
vt -8.32406 -10.01383
vt -0.00000 -10.49067
vt -8.32406 -11.12647
vt -0.00000 -11.44437
vt -8.32406 -12.23912
vt -0.00000 -23.56194
vt -20.00000 -21.87895
vt -0.00000 -21.87895
vt -20.00000 -23.56194
vt -0.00000 21.87895
vt -20.00000 23.56194
vt -0.00000 23.56194
vt -20.00000 21.87895
vt -20.00000 20.19595
vt -0.00000 -20.19595
vt -20.00000 -20.19595
vt -0.00000 -18.51296
vt -20.00000 -18.51296
vt -0.00000 -16.82996
vt -20.00000 -16.82996
vt -0.00000 -15.14697
vt -20.00000 -15.14697
vt -0.00000 -13.46397
vt -20.00000 -13.46397
vt -20.00000 -11.78097
vt -0.00000 -10.09798
vt -20.00000 -10.09798
vt -0.00000 -8.41498
vt -20.00000 -8.41498
vt -0.00000 -6.73198
vt -20.00000 -6.73198
vt -0.00000 -5.04899
vt -20.00000 -5.04899
vt -0.00000 -3.36599
vt -20.00000 -3.36599
vt -0.00000 -1.68300
vt -20.00000 -1.68300
vt -20.00000 0.00000
vt -0.00000 1.68300
vt -20.00000 1.68300
vt -0.00000 3.36599
vt -20.00000 3.36599
vt -0.00000 5.04899
vt -20.00000 5.04899
vt -0.00000 6.73198
vt -20.00000 6.73198
vt -0.00000 8.41498
vt -20.00000 8.41498
vt -0.00000 10.09798
vt -20.00000 10.09798
vt -20.00000 11.78097
vt -0.00000 13.46397
vt -20.00000 13.46397
vt -0.00000 15.14697
vt -20.00000 15.14697
vt -0.00000 16.82996
vt -20.00000 16.82996
vt -0.00000 18.51296
vt -20.00000 18.51296
vt -0.00000 20.19595
vt 7.50000 0.00000
vt -7.31196 1.66891
vt 7.31196 1.66891
vt -7.50000 0.00000
vt 7.31196 -1.66891
vt -7.31196 -1.66891
vt 6.75727 -3.25413
vt -6.75727 -3.25413
vt 5.86374 -4.67617
vt -5.86374 -4.67617
vt 4.67617 -5.86374
vt -4.67617 -5.86374
vt 3.25413 -6.75727
vt -3.25413 -6.75727
vt 1.66891 -7.31196
vt -1.66891 -7.31196
vt -0.00000 -7.50000
vt -6.75727 3.25413
vt 6.75727 3.25413
vt -5.86374 4.67617
vt 5.86374 4.67617
vt -4.67617 5.86374
vt 4.67617 5.86374
vt -3.25413 6.75727
vt 3.25413 6.75727
vt -1.66891 7.31196
vt 1.66891 7.31196
vt -0.00000 7.50000
# 453 texture vertices

g VOR
usemtl mat1
f 2/3 48/2 1/1
f 1/1 48/2 25/4
f 1/7 25/6 24/5
f 24/5 25/6 26/8
f 24/5 26/8 23/9
f 23/9 26/8 27/10
f 23/9 27/10 22/11
f 22/11 27/10 28/12
f 22/11 28/12 21/13
f 21/13 28/12 29/14
f 21/13 29/14 20/15
f 20/15 29/14 30/16
f 20/15 30/16 19/17
f 19/17 30/16 31/18
f 19/17 31/18 18/19
f 18/19 31/18 32/20
f 18/19 32/20 17/21
f 17/21 32/20 33/22
f 17/21 33/22 16/23
f 16/23 33/22 34/24
f 16/23 34/24 15/25
f 15/25 34/24 35/26
f 15/25 35/26 14/27
f 14/27 35/26 36/28
f 14/27 36/28 13/29
f 13/29 36/28 37/30
f 13/29 37/30 12/31
f 12/31 37/30 38/32
f 12/31 38/32 11/33
f 11/33 38/32 39/34
f 11/33 39/34 10/35
f 10/35 39/34 40/36
f 10/35 40/36 9/37
f 9/37 40/36 41/38
f 9/37 41/38 8/39
f 8/39 41/38 42/40
f 8/39 42/40 7/41
f 7/41 42/40 43/42
f 7/41 43/42 6/43
f 6/43 43/42 44/44
f 6/43 44/44 5/45
f 5/45 44/44 45/46
f 5/45 45/46 4/47
f 4/47 45/46 46/48
f 4/47 46/48 3/49
f 3/49 46/48 47/50
f 3/49 47/50 2/3
f 2/3 47/50 48/2
f 24/53 14/52 1/51
f 1/51 14/52 13/54
f 1/51 13/54 2/55
f 2/55 13/54 12/56
f 2/55 12/56 3/57
f 3/57 12/56 11/58
f 3/57 11/58 4/59
f 4/59 11/58 10/60
f 4/59 10/60 5/61
f 5/61 10/60 9/62
f 5/61 9/62 6/63
f 6/63 9/62 8/64
f 6/63 8/64 7/65
f 14/52 24/53 15/66
f 15/66 24/53 23/67
f 15/66 23/67 16/68
f 16/68 23/67 22/69
f 16/68 22/69 17/70
f 17/70 22/69 21/71
f 17/70 21/71 18/72
f 18/72 21/71 20/73
f 18/72 20/73 19/74
f 48/56 38/55 25/54
f 25/54 38/55 37/51
f 25/54 37/51 26/52
f 26/52 37/51 36/53
f 26/52 36/53 27/66
f 27/66 36/53 35/67
f 27/66 35/67 28/68
f 28/68 35/67 34/69
f 28/68 34/69 29/70
f 29/70 34/69 33/71
f 29/70 33/71 30/72
f 30/72 33/71 32/73
f 30/72 32/73 31/74
f 38/55 48/56 39/57
f 39/57 48/56 47/58
f 39/57 47/58 40/59
f 40/59 47/58 46/60
f 40/59 46/60 41/61
f 41/61 46/60 45/62
f 41/61 45/62 42/63
f 42/63 45/62 44/64
f 42/63 44/64 43/65
f 51/77 50/76 49/75
f 53/80 50/79 52/78
f 55/83 50/82 54/81
f 57/86 50/85 56/84
f 59/89 50/88 58/87
f 61/92 50/91 60/90
f 63/95 50/94 62/93
f 64/97 50/96 63/95
f 66/6 50/99 65/98
f 68/18 50/100 67/12
f 70/30 50/101 69/24
f 72/42 50/102 71/36
f 74/4 50/103 73/48
f 76/106 50/105 75/104
f 77/108 50/107 76/106
f 79/111 50/110 78/109
f 81/114 50/113 80/112
f 83/117 50/116 82/115
f 85/120 50/119 84/118
f 87/123 50/122 86/121
f 89/126 50/125 88/124
f 49/128 50/127 89/126
f 88/124 50/129 87/123
f 86/121 50/130 85/120
f 84/118 50/131 83/117
f 82/115 50/132 81/114
f 80/112 50/133 79/111
f 78/109 50/134 77/108
f 75/104 50/135 74/4
f 73/48 50/136 72/42
f 71/36 50/137 70/30
f 69/24 50/138 68/18
f 67/12 50/139 66/6
f 65/98 50/140 64/97
f 62/93 50/141 61/92
f 60/90 50/142 59/89
f 58/87 50/143 57/86
f 56/84 50/144 55/83
f 54/81 50/145 53/80
f 52/78 50/146 51/77
f 91/149 51/148 90/147
f 90/147 51/148 49/150
f 90/153 49/152 92/151
f 92/151 49/152 89/154
f 92/151 89/154 93/155
f 93/155 89/154 88/156
f 93/155 88/156 94/157
f 94/157 88/156 87/158
f 94/157 87/158 95/159
f 95/159 87/158 86/160
f 95/159 86/160 96/161
f 96/161 86/160 85/162
f 96/161 85/162 97/163
f 97/163 85/162 84/164
f 97/163 84/164 98/165
f 98/165 84/164 83/166
f 98/165 83/166 99/167
f 99/167 83/166 82/168
f 99/167 82/168 100/169
f 100/169 82/168 81/170
f 100/169 81/170 101/128
f 101/128 81/170 80/171
f 101/128 80/171 102/124
f 102/124 80/171 79/172
f 102/124 79/172 103/121
f 103/121 79/172 78/173
f 103/121 78/173 104/118
f 104/118 78/173 77/174
f 104/118 77/174 105/115
f 105/115 77/174 76/175
f 105/115 76/175 106/112
f 106/112 76/175 75/176
f 106/112 75/176 107/109
f 107/109 75/176 74/177
f 107/109 74/177 108/106
f 108/106 74/177 73/178
f 108/106 73/178 109/4
f 109/4 73/178 72/179
f 109/4 72/179 110/42
f 110/42 72/179 71/180
f 110/42 71/180 111/30
f 111/30 71/180 70/181
f 111/30 70/181 112/18
f 112/18 70/181 69/182
f 112/18 69/182 113/6
f 113/6 69/182 68/183
f 113/6 68/183 114/97
f 114/97 68/183 67/184
f 114/97 67/184 115/93
f 115/93 67/184 66/185
f 115/93 66/185 116/90
f 116/90 66/185 65/186
f 116/90 65/186 117/87
f 117/87 65/186 64/187
f 117/87 64/187 118/84
f 118/84 64/187 63/188
f 118/84 63/188 119/81
f 119/81 63/188 62/189
f 119/81 62/189 120/78
f 120/78 62/189 61/190
f 120/78 61/190 121/75
f 121/75 61/190 60/191
f 121/75 60/191 122/192
f 122/192 60/191 59/193
f 122/192 59/193 123/194
f 123/194 59/193 58/195
f 123/194 58/195 124/196
f 124/196 58/195 57/197
f 124/196 57/197 125/198
f 125/198 57/197 56/199
f 125/198 56/199 126/200
f 126/200 56/199 55/201
f 126/200 55/201 127/202
f 127/202 55/201 54/203
f 127/202 54/203 128/204
f 128/204 54/203 53/205
f 128/204 53/205 129/206
f 129/206 53/205 52/207
f 129/206 52/207 91/149
f 91/149 52/207 51/148
f 92/210 110/209 90/208
f 90/208 110/209 111/211
f 90/208 111/211 91/212
f 91/212 111/211 112/213
f 91/212 112/213 129/214
f 129/214 112/213 113/215
f 129/214 113/215 128/216
f 128/216 113/215 114/217
f 128/216 114/217 127/218
f 127/218 114/217 115/219
f 127/218 115/219 126/220
f 126/220 115/219 116/221
f 126/220 116/221 125/222
f 125/222 116/221 117/223
f 125/222 117/223 124/224
f 124/224 117/223 118/225
f 124/224 118/225 123/226
f 123/226 118/225 119/227
f 123/226 119/227 122/228
f 122/228 119/227 120/229
f 122/228 120/229 121/230
f 110/209 92/210 109/231
f 109/231 92/210 93/232
f 109/231 93/232 108/233
f 108/233 93/232 94/234
f 108/233 94/234 107/235
f 107/235 94/234 95/236
f 107/235 95/236 106/237
f 106/237 95/236 96/238
f 106/237 96/238 105/239
f 105/239 96/238 97/240
f 105/239 97/240 104/241
f 104/241 97/240 98/242
f 104/241 98/242 103/243
f 103/243 98/242 99/244
f 103/243 99/244 102/245
f 102/245 99/244 100/246
f 102/245 100/246 101/247
g DME
f 132/250 131/249 130/248
f 130/248 131/249 133/251
f 130/254 133/253 134/252
f 134/252 133/253 135/255
f 134/252 135/255 136/256
f 136/256 135/255 137/257
f 136/256 137/257 138/258
f 138/258 137/257 139/259
f 138/258 139/259 140/260
f 140/260 139/259 141/261
f 140/260 141/261 142/262
f 142/262 141/261 143/263
f 142/262 143/263 144/264
f 144/264 143/263 145/265
f 144/264 145/265 146/266
f 146/266 145/265 147/267
f 146/266 147/267 148/268
f 148/268 147/267 149/269
f 148/268 149/269 150/270
f 150/270 149/269 151/271
f 150/270 151/271 152/272
f 152/272 151/271 153/273
f 152/272 153/273 154/274
f 154/274 153/273 155/275
f 154/274 155/275 156/276
f 156/276 155/275 157/277
f 156/276 157/277 158/278
f 158/278 157/277 159/279
f 158/278 159/279 160/280
f 160/280 159/279 161/281
f 160/280 161/281 162/282
f 162/282 161/281 163/283
f 162/282 163/283 164/284
f 164/284 163/283 165/285
f 164/284 165/285 166/286
f 166/286 165/285 167/287
f 166/286 167/287 168/288
f 168/288 167/287 169/289
f 168/288 169/289 170/290
f 170/290 169/289 171/291
f 170/290 171/291 172/292
f 172/292 171/291 173/293
f 172/292 173/293 174/294
f 174/294 173/293 175/295
f 174/294 175/295 176/296
f 176/296 175/295 177/297
f 176/296 177/297 132/250
f 132/250 177/297 131/249
f 134/300 154/299 130/298
f 130/298 154/299 156/301
f 130/298 156/301 132/302
f 132/302 156/301 158/303
f 132/302 158/303 176/304
f 176/304 158/303 160/305
f 176/304 160/305 174/306
f 174/306 160/305 162/307
f 174/306 162/307 172/308
f 172/308 162/307 164/309
f 172/308 164/309 170/310
f 170/310 164/309 166/311
f 170/310 166/311 168/312
f 154/299 134/300 152/313
f 152/313 134/300 136/314
f 152/313 136/314 150/315
f 150/315 136/314 138/316
f 150/315 138/316 148/317
f 148/317 138/316 140/318
f 148/317 140/318 146/319
f 146/319 140/318 142/320
f 146/319 142/320 144/321
f 131/324 178/323 133/322
f 133/322 178/323 179/157
f 133/326 179/204 180/325
f 178/323 131/324 181/327
f 181/327 131/324 177/328
f 181/327 177/328 182/329
f 182/329 177/328 175/330
f 182/329 175/330 183/331
f 183/331 175/330 173/332
f 183/331 173/332 184/333
f 184/333 173/332 171/334
f 184/333 171/334 185/335
f 185/335 171/334 169/336
f 185/335 169/336 186/123
f 186/123 169/336 187/337
f 187/337 169/336 167/338
f 187/337 167/338 188/339
f 188/339 167/338 165/340
f 188/339 165/340 189/341
f 189/341 165/340 163/342
f 189/341 163/342 190/343
f 190/343 163/342 161/344
f 190/343 161/344 191/345
f 191/345 161/344 159/346
f 191/345 159/346 192/347
f 192/347 159/346 157/348
f 192/347 157/348 193/30
f 193/30 157/348 194/349
f 194/349 157/348 155/350
f 194/349 155/350 195/351
f 195/351 155/350 153/352
f 195/351 153/352 196/353
f 196/353 153/352 151/354
f 196/353 151/354 197/355
f 197/355 151/354 149/356
f 197/355 149/356 198/357
f 198/357 149/356 147/358
f 198/357 147/358 199/359
f 199/359 147/358 145/360
f 199/359 145/360 200/80
f 200/80 145/360 201/361
f 201/361 145/360 143/362
f 201/361 143/362 202/363
f 202/363 143/362 141/364
f 202/363 141/364 203/365
f 203/365 141/364 139/366
f 203/365 139/366 204/367
f 204/367 139/366 137/368
f 204/367 137/368 205/369
f 205/369 137/368 135/370
f 205/369 135/370 180/325
f 180/325 135/370 133/326
f 207/373 180/372 206/371
f 206/371 180/372 179/374
f 206/377 179/376 208/375
f 208/375 179/376 178/378
f 208/375 178/378 181/379
f 207/373 209/380 180/372
f 180/372 209/380 205/381
f 205/381 209/380 210/382
f 205/381 210/382 204/383
f 204/383 210/382 211/384
f 204/383 211/384 203/385
f 203/385 211/384 212/386
f 203/385 212/386 202/387
f 202/387 212/386 213/388
f 202/387 213/388 201/389
f 201/389 213/388 214/200
f 201/389 214/200 200/390
f 200/390 214/200 215/391
f 200/390 215/391 199/392
f 199/392 215/391 216/393
f 199/392 216/393 198/394
f 198/394 216/393 217/395
f 198/394 217/395 197/396
f 197/396 217/395 218/397
f 197/396 218/397 196/398
f 196/398 218/397 219/399
f 196/398 219/399 195/400
f 195/400 219/399 220/401
f 195/400 220/401 194/402
f 194/402 220/401 221/30
f 194/402 221/30 193/403
f 193/403 221/30 222/404
f 193/403 222/404 192/405
f 192/405 222/404 223/406
f 192/405 223/406 191/407
f 191/407 223/406 224/408
f 191/407 224/408 190/409
f 190/409 224/408 225/410
f 190/409 225/410 189/411
f 189/411 225/410 226/412
f 189/411 226/412 188/413
f 188/413 226/412 227/414
f 188/413 227/414 187/415
f 187/415 227/414 228/161
f 187/415 228/161 186/416
f 186/416 228/161 229/417
f 186/416 229/417 185/418
f 185/418 229/417 230/419
f 185/418 230/419 184/420
f 184/420 230/419 231/421
f 184/420 231/421 183/422
f 183/422 231/421 232/423
f 183/422 232/423 182/424
f 182/424 232/423 233/425
f 182/424 233/425 181/379
f 181/379 233/425 208/375
f 208/428 222/427 206/426
f 206/426 222/427 221/429
f 206/426 221/429 207/430
f 207/430 221/429 220/431
f 207/430 220/431 209/432
f 209/432 220/431 219/433
f 209/432 219/433 210/434
f 210/434 219/433 218/435
f 210/434 218/435 211/436
f 211/436 218/435 217/437
f 211/436 217/437 212/438
f 212/438 217/437 216/439
f 212/438 216/439 213/440
f 213/440 216/439 215/441
f 213/440 215/441 214/442
f 222/427 208/428 223/443
f 223/443 208/428 233/444
f 223/443 233/444 224/445
f 224/445 233/444 232/446
f 224/445 232/446 225/447
f 225/447 232/446 231/448
f 225/447 231/448 226/449
f 226/449 231/448 230/450
f 226/449 230/450 227/451
f 227/451 230/450 229/452
f 227/451 229/452 228/453
# 454 elements

