# Created by Metasequoia

mtllib bridgefooter.mtl

v 1.000000 0.000000 0.000044
v 1.000000 2.500000 0.000044
v -0.999944 2.500000 0.000000
v -0.999944 0.000000 0.000000
v -1.000000 2.500000 -0.131014
v -1.000000 0.000000 -0.131014
v 1.000056 2.500000 -0.130966
v 1.000056 0.000000 -0.130966
v 0.830718 0.000000 0.000000
v 0.889222 0.000000 -0.040950
v 0.945710 0.000000 -0.084639
v 0.945710 2.500000 -0.084639
v 0.889222 2.500000 -0.040950
v 0.830718 2.500000 0.000000
v 0.830718 2.600000 0.000000
v 0.911485 2.600000 -0.057656
v 0.988263 2.600000 -0.120528
v 1.060716 2.600000 -0.188338
v 1.060716 -0.100000 -0.188338
v 0.988263 -0.100000 -0.120528
v 0.911485 -0.100000 -0.057656
v 0.830718 -0.100000 0.000000
v 1.131427 2.600000 -0.117628
v 1.121044 2.600000 -0.107341
v 1.110569 2.600000 -0.097148
v 1.100000 2.600000 -0.087050
v 1.100000 -0.100000 -0.087050
v 1.110569 -0.100000 -0.097148
v 1.121044 -0.100000 -0.107341
v 1.131427 -0.100000 -0.117628
v -1.100000 2.600000 -0.087158
v -1.110531 2.600000 -0.097220
v -1.120969 2.600000 -0.107378
v -1.131315 2.600000 -0.117628
v -1.131315 -0.100000 -0.117628
v -1.120969 -0.100000 -0.107378
v -1.110531 -0.100000 -0.097220
v -1.100000 -0.100000 -0.087158
v -1.060604 2.600000 -0.188338
v -1.060604 -0.100000 -0.188338
v -0.945638 0.000000 -0.084669
v -0.889130 0.000000 -0.040965
v -0.830606 0.000000 0.000000
v -0.830606 -0.100000 0.000000
v -0.911373 -0.100000 -0.057656
v -0.988151 -0.100000 -0.120528
v -0.988151 2.600000 -0.120528
v -0.911373 2.600000 -0.057656
v -0.830606 2.600000 0.000000
v -0.830606 2.500000 0.000000
v -0.889130 2.500000 -0.040965
v -0.945638 2.500000 -0.084669
v -1.000000 0.000000 14.000000
v 1.000000 0.000000 14.000000
v -1.000000 2.500000 14.000000
v 1.000000 2.500000 14.000000
v -1.100000 -0.100000 14.000000
v 1.100000 -0.100000 14.000000
v 1.100000 2.600000 14.000000
v -1.100000 2.600000 14.000000
# 60 vertices

vt 0.00000 0.00000
# 1 texture vertices

g body
usemtl mat
f 5/1 3/1 6/1
f 6/1 3/1 4/1
f 2/1 7/1 1/1
f 1/1 7/1 8/1
f 9/1 10/1 22/1
f 22/1 10/1 21/1
f 21/1 10/1 11/1
f 21/1 11/1 20/1
f 20/1 11/1 8/1
f 20/1 8/1 19/1
f 19/1 8/1 7/1
f 19/1 7/1 18/1
f 18/1 7/1 17/1
f 17/1 7/1 12/1
f 17/1 12/1 16/1
f 16/1 12/1 13/1
f 16/1 13/1 15/1
f 15/1 13/1 14/1
f 30/1 23/1 29/1
f 29/1 23/1 24/1
f 29/1 24/1 28/1
f 28/1 24/1 25/1
f 28/1 25/1 26/1
f 26/1 27/1 28/1
f 38/1 31/1 37/1
f 37/1 31/1 32/1
f 37/1 32/1 36/1
f 36/1 32/1 33/1
f 36/1 33/1 34/1
f 34/1 35/1 36/1
f 39/1 40/1 34/1
f 34/1 40/1 35/1
f 41/1 46/1 6/1
f 6/1 46/1 40/1
f 6/1 40/1 39/1
f 46/1 41/1 45/1
f 45/1 41/1 42/1
f 45/1 42/1 44/1
f 44/1 42/1 43/1
f 6/1 39/1 5/1
f 5/1 39/1 47/1
f 5/1 47/1 52/1
f 52/1 47/1 48/1
f 52/1 48/1 51/1
f 51/1 48/1 49/1
f 51/1 49/1 50/1
f 23/1 30/1 18/1
f 18/1 30/1 19/1
f 4/1 53/1 43/1
f 4/1 43/1 42/1
f 53/1 54/1 43/1
f 43/1 54/1 9/1
f 9/1 54/1 1/1
f 9/1 1/1 10/1
f 10/1 1/1 11/1
f 11/1 1/1 8/1
f 42/1 41/1 4/1
f 4/1 41/1 6/1
f 14/1 50/1 15/1
f 15/1 50/1 49/1
f 56/1 54/1 58/1
f 58/1 54/1 53/1
f 58/1 53/1 57/1
f 57/1 53/1 55/1
f 57/1 55/1 60/1
f 60/1 55/1 56/1
f 60/1 56/1 59/1
f 59/1 56/1 58/1
f 4/1 3/1 53/1
f 53/1 3/1 55/1
f 56/1 14/1 2/1
f 2/1 14/1 13/1
f 2/1 13/1 12/1
f 14/1 56/1 50/1
f 50/1 56/1 55/1
f 50/1 55/1 3/1
f 3/1 5/1 52/1
f 3/1 52/1 51/1
f 51/1 50/1 3/1
f 12/1 7/1 2/1
f 2/1 1/1 56/1
f 56/1 1/1 54/1
f 27/1 26/1 58/1
f 58/1 26/1 59/1
f 60/1 48/1 31/1
f 31/1 48/1 47/1
f 31/1 47/1 39/1
f 48/1 60/1 49/1
f 49/1 60/1 59/1
f 49/1 59/1 15/1
f 15/1 59/1 16/1
f 16/1 59/1 26/1
f 16/1 26/1 17/1
f 17/1 26/1 18/1
f 18/1 26/1 25/1
f 18/1 25/1 24/1
f 24/1 23/1 18/1
f 34/1 33/1 39/1
f 39/1 33/1 32/1
f 39/1 32/1 31/1
f 31/1 38/1 60/1
f 60/1 38/1 57/1
f 22/1 58/1 44/1
f 44/1 58/1 57/1
f 44/1 57/1 45/1
f 45/1 57/1 38/1
f 45/1 38/1 46/1
f 46/1 38/1 40/1
f 40/1 38/1 37/1
f 40/1 37/1 36/1
f 22/1 21/1 58/1
f 58/1 21/1 27/1
f 27/1 21/1 20/1
f 27/1 20/1 19/1
f 30/1 29/1 19/1
f 19/1 29/1 28/1
f 19/1 28/1 27/1
f 36/1 35/1 40/1
f 43/1 9/1 44/1
f 44/1 9/1 22/1
# 120 elements

