# Created by Metasequoia

v -1.000000 0.000000 -1.118034
v -1.020574 0.000000 -1.099286
v -1.040796 0.000000 -1.080159
v -1.131371 0.000000 -1.131371
v -1.373224 0.000000 -0.810044
v -1.563704 0.000000 -0.311040
v -1.578684 0.000000 0.222873
v -1.416483 0.000000 0.731772
v -1.095306 0.000000 1.158542
v -0.651198 0.000000 1.455285
v -0.134005 0.000000 1.588697
v 0.268010 0.000000 1.577394
v 0.528446 0.000000 1.510213
v 0.773950 0.000000 1.400357
v 1.095306 0.000000 1.158542
v 1.416483 0.000000 0.731772
v 1.578684 0.000000 0.222873
v 1.563704 0.000000 -0.311040
v 1.373224 0.000000 -0.810044
v 1.131371 0.000000 -1.131371
v 1.040796 0.000000 -1.080159
v 1.020574 0.000000 -1.099286
v 1.000000 0.000000 -1.118034
v 1.000000 0.000000 -2.000000
v -1.000000 0.000000 -2.000000
v -1.000000 3.050000 -1.118034
v -1.000000 3.050000 -2.000000
v 1.000000 3.050000 -2.000000
v 1.000000 3.050000 -1.118034
v 1.060660 3.050000 -1.060660
v 1.040796 3.050000 -1.080159
v 1.020574 3.050000 -1.099286
v 1.131371 3.050000 -1.131371
v -1.131371 3.050000 -1.131371
v -1.060660 3.050000 -1.060660
v -1.020574 3.050000 -1.099286
v -1.040796 3.050000 -1.080159
v 1.304897 3.050000 -0.925874
v 1.441550 3.050000 -0.694214
v 1.537468 3.050000 -0.442937
v 1.589940 3.050000 -0.179143
v 1.597483 3.050000 0.089713
v 1.559885 3.050000 0.356033
v 1.478207 3.050000 0.612293
v 1.354759 3.050000 0.851251
v 1.193027 3.050000 1.066154
v 0.997584 3.050000 1.250930
v 0.773950 3.050000 1.400357
v 0.528446 3.050000 1.510213
v 0.268010 3.050000 1.577394
v 0.000000 3.050000 1.600000
v -0.268010 3.050000 1.577394
v -0.528446 3.050000 1.510213
v -0.773950 3.050000 1.400357
v -0.997584 3.050000 1.250930
v -1.193027 3.050000 1.066154
v -1.354759 3.050000 0.851251
v -1.478207 3.050000 0.612293
v -1.559885 3.050000 0.356033
v -1.597483 3.050000 0.089713
v -1.589940 3.050000 -0.179143
v -1.537468 3.050000 -0.442937
v -1.441550 3.050000 -0.694214
v -1.304897 3.050000 -0.925874
v -1.100000 -0.200000 -2.000000
v 1.100000 -0.200000 -2.000000
v 1.100000 -0.200000 -1.161895
v 1.280959 -0.200000 -0.958720
v 1.424877 -0.200000 -0.727823
v 1.527592 -0.200000 -0.475880
v 1.586136 -0.200000 -0.210176
v 1.598813 -0.200000 0.061606
v 1.565260 -0.200000 0.331606
v 1.486444 -0.200000 0.592017
v 1.364646 -0.200000 0.835309
v 1.203387 -0.200000 1.054447
v 1.007331 -0.200000 1.243095
v 0.782146 -0.200000 1.395796
v 0.534345 -0.200000 1.508137
v 0.271092 -0.200000 1.576867
v 0.000000 -0.200000 1.600000
v -0.271092 -0.200000 1.576867
v -0.534345 -0.200000 1.508137
v -0.782146 -0.200000 1.395796
v -1.007331 -0.200000 1.243095
v -1.203387 -0.200000 1.054447
v -1.364646 -0.200000 0.835309
v -1.486444 -0.200000 0.592017
v -1.565260 -0.200000 0.331606
v -1.598813 -0.200000 0.061606
v -1.586136 -0.200000 -0.210176
v -1.527592 -0.200000 -0.475880
v -1.424877 -0.200000 -0.727823
v -1.280959 -0.200000 -0.958720
v -1.100000 -0.200000 -1.161895
v 1.100000 3.150000 -2.000000
v 1.100000 3.150000 -1.161895
v -1.592474 3.150000 -0.074285
v -1.284016 3.150000 0.944878
v -0.402718 3.150000 1.542502
v 0.271092 3.150000 1.576867
v 0.894739 3.150000 1.319445
v 1.525852 3.150000 0.461811
v 1.476234 3.150000 -0.601852
v 1.592474 3.150000 -0.074285
v 1.284016 3.150000 0.944878
v 0.534345 3.150000 1.508137
v 0.000000 3.150000 1.600000
v -0.894739 3.150000 1.319445
v -1.525852 3.150000 0.461811
v -1.476234 3.150000 -0.601852
v -1.100000 3.150000 -1.161895
v -1.100000 3.150000 -2.000000
# 113 vertices

vt 0.00000 0.00000
# 1 texture vertices

g body
f 2/1 22/1 1/1
f 1/1 22/1 23/1
f 1/1 23/1 25/1
f 25/1 23/1 24/1
f 22/1 2/1 21/1
f 21/1 2/1 3/1
f 94/1 5/1 4/1
f 93/1 5/1 94/1
f 92/1 5/1 93/1
f 1/1 25/1 26/1
f 26/1 25/1 27/1
f 24/1 23/1 28/1
f 28/1 23/1 29/1
f 29/1 23/1 32/1
f 32/1 23/1 22/1
f 32/1 22/1 31/1
f 31/1 22/1 21/1
f 92/1 6/1 5/1
f 91/1 6/1 92/1
f 90/1 6/1 91/1
f 90/1 7/1 6/1
f 34/1 4/1 35/1
f 89/1 7/1 90/1
f 88/1 7/1 89/1
f 88/1 8/1 7/1
f 37/1 3/1 36/1
f 36/1 3/1 2/1
f 36/1 2/1 1/1
f 1/1 26/1 36/1
f 37/1 31/1 35/1
f 35/1 31/1 30/1
f 35/1 30/1 59/1
f 59/1 30/1 58/1
f 58/1 30/1 43/1
f 58/1 43/1 44/1
f 31/1 37/1 32/1
f 32/1 37/1 36/1
f 32/1 36/1 29/1
f 29/1 36/1 26/1
f 29/1 26/1 28/1
f 28/1 26/1 27/1
f 33/1 38/1 30/1
f 30/1 38/1 39/1
f 30/1 39/1 40/1
f 40/1 41/1 30/1
f 30/1 41/1 42/1
f 30/1 42/1 43/1
f 58/1 44/1 57/1
f 57/1 44/1 45/1
f 57/1 45/1 56/1
f 56/1 45/1 46/1
f 56/1 46/1 55/1
f 55/1 46/1 47/1
f 55/1 47/1 54/1
f 54/1 47/1 48/1
f 54/1 48/1 53/1
f 53/1 48/1 49/1
f 53/1 49/1 52/1
f 52/1 49/1 50/1
f 52/1 50/1 51/1
f 59/1 60/1 35/1
f 35/1 60/1 61/1
f 35/1 61/1 62/1
f 62/1 63/1 35/1
f 35/1 63/1 64/1
f 35/1 64/1 34/1
f 65/1 66/1 95/1
f 95/1 66/1 67/1
f 95/1 67/1 94/1
f 94/1 67/1 68/1
f 94/1 68/1 93/1
f 93/1 68/1 69/1
f 93/1 69/1 92/1
f 92/1 69/1 70/1
f 92/1 70/1 91/1
f 91/1 70/1 71/1
f 91/1 71/1 90/1
f 90/1 71/1 72/1
f 90/1 72/1 89/1
f 89/1 72/1 73/1
f 89/1 73/1 88/1
f 88/1 73/1 74/1
f 88/1 74/1 87/1
f 87/1 74/1 75/1
f 87/1 75/1 86/1
f 86/1 75/1 76/1
f 86/1 76/1 85/1
f 85/1 76/1 77/1
f 85/1 77/1 84/1
f 84/1 77/1 78/1
f 84/1 78/1 83/1
f 83/1 78/1 79/1
f 83/1 79/1 82/1
f 82/1 79/1 80/1
f 82/1 80/1 81/1
f 96/1 97/1 66/1
f 66/1 97/1 67/1
f 87/1 8/1 88/1
f 20/1 68/1 67/1
f 20/1 67/1 97/1
f 86/1 8/1 87/1
f 86/1 9/1 8/1
f 85/1 9/1 86/1
f 84/1 9/1 85/1
f 84/1 10/1 9/1
f 83/1 10/1 84/1
f 82/1 10/1 83/1
f 82/1 11/1 10/1
f 81/1 11/1 82/1
f 81/1 12/1 11/1
f 80/1 12/1 81/1
f 80/1 13/1 12/1
f 79/1 13/1 80/1
f 79/1 14/1 13/1
f 78/1 14/1 79/1
f 78/1 15/1 14/1
f 77/1 15/1 78/1
f 76/1 15/1 77/1
f 76/1 16/1 15/1
f 75/1 16/1 76/1
f 74/1 16/1 75/1
f 74/1 17/1 16/1
f 73/1 17/1 74/1
f 72/1 17/1 73/1
f 72/1 18/1 17/1
f 71/1 18/1 72/1
f 70/1 18/1 71/1
f 70/1 19/1 18/1
f 69/1 19/1 70/1
f 68/1 19/1 69/1
f 19/1 68/1 20/1
f 35/1 3/1 37/1
f 35/1 4/1 3/1
f 33/1 21/1 20/1
f 30/1 21/1 33/1
f 21/1 30/1 31/1
f 21/1 19/1 20/1
f 18/1 19/1 21/1
f 21/1 17/1 18/1
f 12/1 10/1 11/1
f 13/1 10/1 12/1
f 14/1 10/1 13/1
f 14/1 9/1 10/1
f 15/1 9/1 14/1
f 15/1 8/1 9/1
f 16/1 8/1 15/1
f 3/1 6/1 7/1
f 3/1 5/1 6/1
f 4/1 5/1 3/1
f 16/1 7/1 8/1
f 16/1 3/1 7/1
f 17/1 3/1 16/1
f 21/1 3/1 17/1
f 94/1 4/1 95/1
f 95/1 4/1 112/1
f 112/1 4/1 34/1
f 101/1 100/1 108/1
f 107/1 100/1 101/1
f 107/1 109/1 100/1
f 102/1 109/1 107/1
f 102/1 99/1 109/1
f 106/1 99/1 102/1
f 106/1 110/1 99/1
f 103/1 110/1 106/1
f 103/1 98/1 110/1
f 105/1 98/1 103/1
f 105/1 111/1 98/1
f 104/1 111/1 105/1
f 104/1 112/1 111/1
f 97/1 112/1 104/1
f 97/1 38/1 33/1
f 104/1 38/1 97/1
f 104/1 39/1 38/1
f 104/1 40/1 39/1
f 105/1 40/1 104/1
f 105/1 41/1 40/1
f 105/1 42/1 41/1
f 103/1 42/1 105/1
f 103/1 43/1 42/1
f 103/1 44/1 43/1
f 106/1 44/1 103/1
f 106/1 45/1 44/1
f 106/1 46/1 45/1
f 102/1 46/1 106/1
f 102/1 47/1 46/1
f 102/1 48/1 47/1
f 97/1 33/1 20/1
f 112/1 113/1 95/1
f 95/1 113/1 65/1
f 24/1 65/1 25/1
f 25/1 65/1 113/1
f 25/1 113/1 27/1
f 27/1 113/1 96/1
f 27/1 96/1 28/1
f 28/1 96/1 24/1
f 24/1 96/1 66/1
f 24/1 66/1 65/1
f 96/1 113/1 97/1
f 97/1 113/1 112/1
f 107/1 48/1 102/1
f 107/1 49/1 48/1
f 101/1 49/1 107/1
f 101/1 50/1 49/1
f 108/1 50/1 101/1
f 108/1 51/1 50/1
f 108/1 52/1 51/1
f 100/1 52/1 108/1
f 100/1 53/1 52/1
f 100/1 54/1 53/1
f 109/1 54/1 100/1
f 109/1 55/1 54/1
f 109/1 56/1 55/1
f 99/1 56/1 109/1
f 99/1 57/1 56/1
f 99/1 58/1 57/1
f 110/1 58/1 99/1
f 110/1 59/1 58/1
f 110/1 60/1 59/1
f 98/1 60/1 110/1
f 98/1 61/1 60/1
f 98/1 62/1 61/1
f 111/1 62/1 98/1
f 111/1 63/1 62/1
f 111/1 64/1 63/1
f 112/1 64/1 111/1
f 112/1 34/1 64/1
# 226 elements

