# Created by Metasequoia

v 0.000000 0.100000 0.000000
v -3.000000 0.100000 0.000000
v -3.000000 0.100000 -9.000000
v 0.000000 0.100000 -9.000000
v 0.000000 0.100000 -6.900000
v -0.800000 0.100000 -6.900000
v -0.800000 0.100000 -7.500000
v -2.200000 0.100000 -7.500000
v -2.200000 0.100000 -1.500000
v -0.800000 0.100000 -1.500000
v -0.800000 0.100000 -2.100000
v 0.000000 0.100000 -2.100000
# 12 vertices

vt 0.00000 0.00000
# 1 texture vertices

g body
f 2/1 1/1 10/1
f 10/1 1/1 12/1
f 10/1 12/1 11/1
f 10/1 9/1 2/1
f 2/1 9/1 8/1
f 2/1 8/1 3/1
f 3/1 8/1 7/1
f 3/1 7/1 4/1
f 4/1 7/1 5/1
f 5/1 7/1 6/1
# 10 elements

