# Created by Metasequoia

v -0.000638 -0.240001 0.000000
v 0.110791 -0.239838 0.000000
v 0.110791 -0.239838 0.010000
v -0.000638 -0.240001 0.010000
v -0.001157 0.114724 0.000000
v -0.001157 0.114724 0.010000
v -0.110561 0.082586 0.000000
v -0.110561 0.082586 0.010000
v -0.110684 0.166981 0.000000
v -0.110684 0.166981 0.010000
v 0.099868 0.240146 0.000000
v 0.099868 0.240146 0.010000
v 0.110088 0.240161 0.000000
v 0.110088 0.240161 0.010000
# 14 vertices

vt 0.00000 0.10000
vt 1.11429 0.00000
vt 0.00000 0.00000
vt 1.11429 0.10000
vt 3.54725 0.00000
vt 3.54725 0.10000
vt 1.14026 0.00000
vt 1.14026 0.10000
vt 0.84396 0.00000
vt 0.84396 0.10000
vt 2.22902 0.00000
vt 2.22902 0.10000
vt 0.10220 0.00000
vt 0.10220 0.10000
vt 4.80000 0.00000
vt 4.80000 0.10000
vt 1.10737 -2.39918
vt 0.99815 2.40066
vt 1.10035 2.40081
vt -0.01210 1.14644
vt -0.00691 -2.40081
vt -1.10737 1.66901
vt -1.10614 0.82505
vt -0.99815 2.40066
vt -1.10737 -2.39918
vt -1.10035 2.40081
vt 0.01210 1.14644
vt 1.10737 1.66901
vt 1.10614 0.82505
vt 0.00691 -2.40081
# 30 texture vertices

g Body1
f 1/3 2/2 4/1
f 4/1 2/2 3/4
f 5/3 1/5 6/1
f 6/1 1/5 4/6
f 7/3 5/7 8/1
f 8/1 5/7 6/8
f 9/3 7/9 10/1
f 10/1 7/9 8/10
f 11/3 9/11 12/1
f 12/1 9/11 10/12
f 13/3 11/13 14/1
f 14/1 11/13 12/14
f 2/3 13/15 3/1
f 3/1 13/15 14/16
f 14/19 12/18 3/17
f 3/17 12/18 6/20
f 3/17 6/20 4/21
f 12/18 10/22 6/20
f 6/20 10/22 8/23
f 13/26 2/25 11/24
f 11/24 2/25 5/27
f 11/24 5/27 9/28
f 9/28 5/27 7/29
f 2/25 1/30 5/27
# 24 elements

